-------------------------------------------------------------------------------
Test set: com.scfm.SampleTest
-------------------------------------------------------------------------------
Tests run: 1, Failures: 0, Errors: 0, Skipped: 0, Time elapsed: 0.109 s - in com.scfm.SampleTest
